{
  "introFile": "courseware-intro.jade",
  "header": "Školení - Javascript - cvičení (www.angular.cz)",
  "todoFilePath": "complete/todo.jade",
  "todos": [
    "01-basics",
    "02-object-data-types",
    "03-scope-and-closure",
    "04-oop",
    "05-exceptions",
    "06-this-and-async",
    "07-async-promise",
    "08-dom",
    "09-es6",
    "10-react"
  ],
  "testsSocket": true,
  "testsResultsPath": "test-results"
}